0.13227176950087727,-0.9260898585275474
0.9619136737573164,0.11362414214595873
0.43124303758606364,0.24827741766917422
0.46915432779274857,-0.5619067961659832
0.7145532952370295,-0.9971898517116304
0.7818525608208386,-0.13689575196861892
0.8974489269225052,-0.253316612358943
0.2492015915180017,-0.5211497066600799
0.22064162124341813,0.5043209820846157
-0.6443455298121881,-0.7570546277589989
-0.028009208942098462,-0.579321780511687
-0.29583756973186426,0.7080534951864852
0.6765442193253521,-0.7944951736877037
0.5733426400153812,-0.5087025971640833
0.8277560199561276,-0.0882605921351125
-0.7958244104974606,-0.8985245307798331
-0.41498273922408346,0.2601948713235003
-0.8005842333738913,-0.36018450359404963
0.6346064310623272,-0.920154108380026
0.13932722206095005,-0.1708270284242277
-0.4574465458747441,-0.04132304333398262
0.3062649827524373,-0.3326535131581956
0.9136102597042104,-0.8049026919672226
-0.1756539311634564,-0.5985744813387928
0.9911945680559904,-0.2126882556209222
0.534489545397393,-0.09742115220462577
-0.6957488701457157,-0.022651080235446708
-0.4328249803566788,-0.22064186171412814
-0.3225143518304048,0.1342494972324355
0.883180856631153,-0.30129694359598913
0.5287349761013156,-0.4834220172409167
0.02785628601947221,-0.15502334186133426
-0.3429805439124656,0.06736169246476864
-0.43994550003663924,-0.9149497563263975
-0.17104266441285731,-0.7856336412213778
-0.424310518408636,-0.46142330826019373
0.4834940287069758,0.9651646323935152
-0.35544524076254147,0.6644067236141897
0.15561093043727192,-0.09722792872855246
0.6127841328651673,0.7599295880690802
-0.6184385671852142,0.6266061391253162
-0.4208144418482589,-0.7584386773258736
0.8951632392655358,0.6890848032890227
-0.9039673076005406,-0.7344238961754994
-0.20187559617579787,0.6723479115743738
0.3822111110119495,0.8926420201456429
-0.9409628291257393,-0.7982580513064368
0.5215442857170365,0.9727160801385828
0.10379210765947278,0.6263452891592449
0.7624195399954439,-0.11483077664643515
0.5679624888895936,-0.13020577195160854
0.5366106532161135,-0.921289551902988
0.14397107377978213,-0.18592909296487825
0.9274221700410032,-0.32308101625912733
0.6200596532495151,0.6996790842901388
-0.39572267202355715,-0.6540441560678139
-0.6603300454311172,0.9605351541200378
-0.8141892180630419,0.528346342411578
0.9997819377037183,-0.056041348600749386
0.3185489340771812,0.7867441414940848
-0.1611888864299369,-0.8925278706473658
0.6380894045439605,0.3683911219626925
-0.20916552408413724,-0.4334426126399762
-0.2633423915422004,0.36959627154025676
-0.2760163544063601,0.4980975341279692
0.3918201724291126,-0.05294108852097734
0.6674189803032082,-0.6588609301474182
-0.25554144364528786,-0.6241896836136449
0.9844884063268793,0.10247929336695494
-0.8431419698225306,0.6609755482773527
0.14253003350129956,-0.477915439836466
0.49636958916571206,-0.41368560698956225
-0.8058744452428832,-0.8895804070434292
-0.9920607384236984,-0.42954817065128936
0.35476009761922134,0.6422875102039107
-0.6489211928400733,0.8461773355325248
-0.39575431423364416,0.33552936757169816
-0.24664807930031585,0.20375107253852232
-0.21756189945708426,-0.26717321775014136
-0.1143128859941398,0.5147544607176671
-0.26505283160572435,0.24433176536869472
0.27780949975235125,-0.6844399833279042
-0.9602361678524864,0.7577675688854293
-0.5526059771722791,0.15155714072840643
0.5220771002608751,0.8934481500033045
-0.4769035275496414,-0.6969008741695701
-0.9121330855175311,-0.1516879386851142
-0.7202208601362594,-0.36360794271433616
0.9223830625597345,-0.3658488380061873
0.42827132326972017,0.06211548313827309
0.6896748286547538,0.7358813872987566
0.07071604362662165,0.1842523321794518
0.5019924980064105,-0.38115728625513734
-0.7154858880876767,-0.01057197822957967
0.4975021361909908,0.4392574639792226
-0.3773356743280445,-0.36243386818780543
0.04475880885786432,-0.8176146572973795
0.7839925097313221,0.6715101715144456
0.5524618629871045,-0.8301480124938949
-0.2162105054503365,-0.3646084344116449
-0.35447470341754395,0.5910648827141132
0.23262144243656602,-0.3155850318777773
-0.5047552498680241,-0.5903187217116537
-0.24246544454074015,-0.13234613417970809
0.5362810771463027,0.33376877345976097
0.9293066917005086,-0.703231802878703
0.7356063409374245,0.2617974315389413
0.7378073523809183,0.4860373167061538
0.4071697556322178,0.3257233567243163
-0.6472497376992725,-0.3881415758951243
0.22301263310710695,-0.26559474584875176
0.3470418572159535,-0.38797628419392227
-0.5097443662142864,0.24237579233178974
-0.8442025502654495,0.5298323528172086
0.38447025822303593,0.6020578241612913
0.13486716850799763,-0.9910038695077599
0.9895701589659227,-0.828045717193606
0.21918663702226837,-0.04444489171381116
-0.04885201374316228,-0.9393986689042899
0.5046061943847604,0.7608129426147865
-0.8854754052303893,-0.2691767553288267
-0.40430682147122843,-0.3554575279164942
-0.702380861099559,-0.6029892695859598
-0.5379216512415388,-0.8419431357783542
-0.5292343361857614,-0.17623000912445286
0.34914983839320435,-0.09550112677165323
-0.6093788794412012,-0.16531656326106847
0.9352657786207765,-0.7652183034950453
